…
- Years: All of 2006-2023
- Limitations: Please note there may be some incorrect merges, especially for nontraditional names and representatives who were elected in special elections and may not be in some datasets.

The unique identifiers can be used to join with other databases to append additional information such as committee membership and ideology scores, such as

Lewis, Jeffrey B., Keith Poole, Howard Rosenthal, Adam Boche, Aaron Rudkin, and Luke Sonnet (2017). Voteview: Congressional Roll-Call Votes Database. https:// voteview.com/

The text responses that the respondent chose in each of the intent_ / voted_ questions, if the respondent was a candidate. For example, respondent with case_id $=163051575$ in the 2012 CCES chose the first option in the House representative preference question. intent_rep_chosen shows that this particular respondent preferred voting for Maxine Waters, one of the two Democrats in the race.

```
cc |>
    filter(year == 2012, as_factor(st) == "CA", dist_up == 43) |>
    select(matches("intent_rep"))
# A tibble: 91 x 3
    intent_rep intent_rep_party intent_rep_chosen
    <fct> <fct> <chr>
    1 [Democrat / Candidate 1] Democratic Maxine Waters (D)
2 Not Sure <NA> <NA>
3 No One <NA> <NA>
4 [Democrat / Candidate 1] Democratic Maxine Waters (D)
5 \text { [Republican / Candidate 2] Democratic Bob Flores (D)}
6 Not Sure <NA> <NA>
7 \text { Other <NA> <NA>}
8 [Republican / Candidate 2] Democratic Bob Flores (D)
9 [Republican / Candidate 2] Democratic Bob Flores (D)
10 [Democrat / Candidate 1] Democratic Maxine Waters (D)
```

\# i 81 more rows
…
